{
    "model": "offlineTable",
    "searchExpression": "",
    "columns": [
      {
        "name":"studentIdentifier",
        "property": "studentIdentifier",
        "title":"CoursesLocal.StudentIdentifier"
      },
      {
        "name":"familyName",
        "property": "familyName",
        "title":"CoursesLocal.FullName",
        "formatter": "TemplateFormatter",
        "formatString": "${familyName} ${givenName}"
      },
      {
        "name":"givenName",
        "property": "givenName",
        "title":"CoursesLocal.GivenName",
        "hidden": true
      },
      {
        "name": "registrationSemester",
        "property": "registrationSemester",
        "title": "CoursesLocal.Semester"
      },
      {
        "name": "studentStatus",
        "property": "studentStatus",
        "title": "CoursesLocal.StudentStatus"
      },
      {
        "name": "formattedGrade",
        "property": "formattedGrade",
        "title": "CoursesLocal.Grade"
      },
      {
        "name": "validationResult",
        "property": "validationResult.code",
        "title": "CoursesLocal.GradeStatusTitle",
        "formatters": [
          {
            "formatter": "TranslationFormatter",
            "formatString": "CoursesLocal.GradeStatusTypes.${value}"
          },
          {
            "formatter": "NgClassFormatter",
            "formatOptions": {
              "ngClass": {
                "text-danger": "'${validationResult.success}'==='false'",
                "text-success": "'${validationResult.success}'==='true'"
              }
            }
          }
        ]
      }
    ],
    "defaults": {
    }
  }
  